PWD /home/rad/SynologyDrive/Birkbeck/statistical_learning/assignment/report
INPUT /etc/texmf/web2c/texmf.cnf
INPUT /usr/share/texmf/web2c/texmf.cnf
INPUT /usr/share/texlive/texmf-dist/web2c/texmf.cnf
INPUT /var/lib/texmf/web2c/pdftex/pdflatex.fmt
INPUT /home/rad/SynologyDrive/Birkbeck/statistical_learning/assignment/report/main.tex
OUTPUT /home/rad/SynologyDrive/Birkbeck/statistical_learning/assignment/report/main.log
INPUT /home/rad/SynologyDrive/Birkbeck/statistical_learning/assignment/report/fphw.cls
INPUT /home/rad/SynologyDrive/Birkbeck/statistical_learning/assignment/report/fphw.cls
INPUT /usr/share/texlive/texmf-dist/tex/latex/fancyhdr/fancyhdr.sty
INPUT /usr/share/texlive/texmf-dist/tex/latex/fancyhdr/fancyhdr.sty
INPUT /usr/share/texlive/texmf-dist/tex/latex/base/article.cls
INPUT /usr/share/texlive/texmf-dist/tex/latex/base/article.cls
INPUT /usr/share/texlive/texmf-dist/tex/latex/base/size12.clo
INPUT /usr/share/texlive/texmf-dist/tex/latex/base/size12.clo
INPUT /usr/share/texlive/texmf-dist/fonts/map/fontname/texfonts.map
INPUT /usr/share/texlive/texmf-dist/fonts/tfm/public/cm/cmr12.tfm
INPUT /usr/share/texlive/texmf-dist/tex/latex/titlesec/titlesec.sty
INPUT /usr/share/texlive/texmf-dist/tex/latex/titlesec/titlesec.sty
INPUT /usr/share/texlive/texmf-dist/tex/latex/titlesec/block.tss
INPUT /usr/share/texlive/texmf-dist/tex/latex/titlesec/block.tss
INPUT /usr/share/texlive/texmf-dist/tex/latex/geometry/geometry.sty
INPUT /usr/share/texlive/texmf-dist/tex/latex/geometry/geometry.sty
INPUT /usr/share/texlive/texmf-dist/tex/latex/graphics/keyval.sty
INPUT /usr/share/texlive/texmf-dist/tex/latex/graphics/keyval.sty
INPUT /usr/share/texlive/texmf-dist/tex/generic/oberdiek/ifpdf.sty
INPUT /usr/share/texlive/texmf-dist/tex/generic/oberdiek/ifpdf.sty
INPUT /usr/share/texlive/texmf-dist/tex/generic/oberdiek/ifvtex.sty
INPUT /usr/share/texlive/texmf-dist/tex/generic/oberdiek/ifvtex.sty
INPUT /usr/share/texlive/texmf-dist/tex/generic/ifxetex/ifxetex.sty
INPUT /usr/share/texlive/texmf-dist/tex/generic/ifxetex/ifxetex.sty
INPUT /usr/share/texlive/texmf-dist/tex/latex/base/inputenc.sty
INPUT /usr/share/texlive/texmf-dist/tex/latex/base/inputenc.sty
INPUT /usr/share/texlive/texmf-dist/tex/latex/base/fontenc.sty
INPUT /usr/share/texlive/texmf-dist/tex/latex/base/fontenc.sty
INPUT /usr/share/texlive/texmf-dist/tex/latex/base/t1enc.def
INPUT /usr/share/texlive/texmf-dist/tex/latex/base/t1enc.def
INPUT /usr/share/texlive/texmf-dist/fonts/tfm/jknappen/ec/ecrm1200.tfm
INPUT /usr/share/texlive/texmf-dist/tex/latex/psnfss/mathpazo.sty
INPUT /usr/share/texlive/texmf-dist/tex/latex/psnfss/mathpazo.sty
INPUT /usr/share/texlive/texmf-dist/tex/latex/graphics/graphicx.sty
INPUT /usr/share/texlive/texmf-dist/tex/latex/graphics/graphicx.sty
INPUT /usr/share/texlive/texmf-dist/tex/latex/graphics/graphics.sty
INPUT /usr/share/texlive/texmf-dist/tex/latex/graphics/graphics.sty
INPUT /usr/share/texlive/texmf-dist/tex/latex/graphics/trig.sty
INPUT /usr/share/texlive/texmf-dist/tex/latex/graphics/trig.sty
INPUT /usr/share/texlive/texmf-dist/tex/latex/graphics-cfg/graphics.cfg
INPUT /usr/share/texlive/texmf-dist/tex/latex/graphics-cfg/graphics.cfg
INPUT /usr/share/texlive/texmf-dist/tex/latex/graphics-def/pdftex.def
INPUT /usr/share/texlive/texmf-dist/tex/latex/graphics-def/pdftex.def
INPUT /usr/share/texlive/texmf-dist/tex/latex/booktabs/booktabs.sty
INPUT /usr/share/texlive/texmf-dist/tex/latex/booktabs/booktabs.sty
INPUT /usr/share/texlive/texmf-dist/tex/latex/listings/listings.sty
INPUT /usr/share/texlive/texmf-dist/tex/latex/listings/listings.sty
INPUT /usr/share/texlive/texmf-dist/tex/latex/listings/lstmisc.sty
INPUT /usr/share/texlive/texmf-dist/tex/latex/listings/lstmisc.sty
INPUT /usr/share/texlive/texmf-dist/tex/latex/listings/listings.cfg
INPUT /usr/share/texlive/texmf-dist/tex/latex/listings/listings.cfg
INPUT /usr/share/texlive/texmf-dist/tex/latex/tools/enumerate.sty
INPUT /usr/share/texlive/texmf-dist/tex/latex/tools/enumerate.sty
INPUT /usr/share/texlive/texmf-dist/tex/latex/pdfpages/pdfpages.sty
INPUT /usr/share/texlive/texmf-dist/tex/latex/pdfpages/pdfpages.sty
INPUT /usr/share/texlive/texmf-dist/tex/latex/base/ifthen.sty
INPUT /usr/share/texlive/texmf-dist/tex/latex/base/ifthen.sty
INPUT /usr/share/texlive/texmf-dist/tex/latex/tools/calc.sty
INPUT /usr/share/texlive/texmf-dist/tex/latex/tools/calc.sty
INPUT /usr/share/texlive/texmf-dist/tex/latex/eso-pic/eso-pic.sty
INPUT /usr/share/texlive/texmf-dist/tex/latex/eso-pic/eso-pic.sty
INPUT /usr/share/texlive/texmf-dist/tex/generic/oberdiek/atbegshi.sty
INPUT /usr/share/texlive/texmf-dist/tex/generic/oberdiek/atbegshi.sty
INPUT /usr/share/texlive/texmf-dist/tex/generic/oberdiek/infwarerr.sty
INPUT /usr/share/texlive/texmf-dist/tex/generic/oberdiek/infwarerr.sty
INPUT /usr/share/texlive/texmf-dist/tex/generic/oberdiek/ltxcmds.sty
INPUT /usr/share/texlive/texmf-dist/tex/generic/oberdiek/ltxcmds.sty
INPUT /usr/share/texlive/texmf-dist/tex/latex/xcolor/xcolor.sty
INPUT /usr/share/texlive/texmf-dist/tex/latex/xcolor/xcolor.sty
INPUT /usr/share/texlive/texmf-dist/tex/latex/xcolor/xcolor.sty
INPUT /usr/share/texlive/texmf-dist/tex/latex/graphics-cfg/color.cfg
INPUT /usr/share/texlive/texmf-dist/tex/latex/graphics-cfg/color.cfg
INPUT /usr/share/texlive/texmf-dist/tex/latex/pdfpages/pppdftex.def
INPUT /usr/share/texlive/texmf-dist/tex/latex/pdfpages/pppdftex.def
INPUT /usr/share/texlive/texmf-dist/tex/latex/tools/bm.sty
INPUT /usr/share/texlive/texmf-dist/tex/latex/tools/bm.sty
INPUT /usr/share/texlive/texmf-dist/tex/latex/amsmath/amsmath.sty
INPUT /usr/share/texlive/texmf-dist/tex/latex/amsmath/amsmath.sty
INPUT /usr/share/texlive/texmf-dist/tex/latex/amsmath/amstext.sty
INPUT /usr/share/texlive/texmf-dist/tex/latex/amsmath/amstext.sty
INPUT /usr/share/texlive/texmf-dist/tex/latex/amsmath/amsgen.sty
INPUT /usr/share/texlive/texmf-dist/tex/latex/amsmath/amsgen.sty
INPUT /usr/share/texlive/texmf-dist/tex/latex/amsmath/amsbsy.sty
INPUT /usr/share/texlive/texmf-dist/tex/latex/amsmath/amsbsy.sty
INPUT /usr/share/texlive/texmf-dist/tex/latex/amsmath/amsopn.sty
INPUT /usr/share/texlive/texmf-dist/tex/latex/amsmath/amsopn.sty
INPUT /usr/share/texlive/texmf-dist/tex/latex/hyperref/hyperref.sty
INPUT /usr/share/texlive/texmf-dist/tex/latex/hyperref/hyperref.sty
INPUT /usr/share/texlive/texmf-dist/tex/generic/oberdiek/hobsub-hyperref.sty
INPUT /usr/share/texlive/texmf-dist/tex/generic/oberdiek/hobsub-hyperref.sty
INPUT /usr/share/texlive/texmf-dist/tex/generic/oberdiek/hobsub-hyperref.sty
INPUT /usr/share/texlive/texmf-dist/tex/generic/oberdiek/hobsub-generic.sty
INPUT /usr/share/texlive/texmf-dist/tex/generic/oberdiek/hobsub-generic.sty
INPUT /usr/share/texlive/texmf-dist/tex/latex/oberdiek/auxhook.sty
INPUT /usr/share/texlive/texmf-dist/tex/latex/oberdiek/auxhook.sty
INPUT /usr/share/texlive/texmf-dist/tex/latex/oberdiek/kvoptions.sty
INPUT /usr/share/texlive/texmf-dist/tex/latex/oberdiek/kvoptions.sty
INPUT /usr/share/texlive/texmf-dist/tex/latex/hyperref/pd1enc.def
INPUT /usr/share/texlive/texmf-dist/tex/latex/hyperref/pd1enc.def
INPUT /usr/share/texlive/texmf-dist/tex/latex/latexconfig/hyperref.cfg
INPUT /usr/share/texlive/texmf-dist/tex/latex/latexconfig/hyperref.cfg
INPUT /usr/share/texlive/texmf-dist/tex/latex/url/url.sty
INPUT /usr/share/texlive/texmf-dist/tex/latex/url/url.sty
INPUT /usr/share/texlive/texmf-dist/tex/latex/hyperref/hpdftex.def
INPUT /usr/share/texlive/texmf-dist/tex/latex/hyperref/hpdftex.def
INPUT /usr/share/texlive/texmf-dist/tex/latex/oberdiek/rerunfilecheck.sty
INPUT /usr/share/texlive/texmf-dist/tex/latex/oberdiek/rerunfilecheck.sty
INPUT /usr/share/texlive/texmf-dist/tex/latex/enumitem/enumitem.sty
INPUT /usr/share/texlive/texmf-dist/tex/latex/enumitem/enumitem.sty
INPUT /usr/share/texlive/texmf-dist/tex/latex/appendix/appendix.sty
INPUT /usr/share/texlive/texmf-dist/tex/latex/appendix/appendix.sty
INPUT /home/rad/SynologyDrive/Birkbeck/statistical_learning/assignment/report/main.aux
INPUT /home/rad/SynologyDrive/Birkbeck/statistical_learning/assignment/report/main.aux
OUTPUT /home/rad/SynologyDrive/Birkbeck/statistical_learning/assignment/report/main.aux
INPUT /usr/share/texlive/texmf-dist/tex/latex/psnfss/t1ppl.fd
INPUT /usr/share/texlive/texmf-dist/tex/latex/psnfss/t1ppl.fd
INPUT /usr/share/texlive/texmf-dist/fonts/tfm/adobe/palatino/pplr8t.tfm
INPUT /usr/share/texlive/texmf-dist/tex/context/base/mkii/supp-pdf.mkii
INPUT /usr/share/texlive/texmf-dist/tex/context/base/mkii/supp-pdf.mkii
INPUT /usr/share/texlive/texmf-dist/tex/latex/oberdiek/epstopdf-base.sty
INPUT /usr/share/texlive/texmf-dist/tex/latex/oberdiek/epstopdf-base.sty
INPUT /usr/share/texlive/texmf-dist/tex/latex/oberdiek/grfext.sty
INPUT /usr/share/texlive/texmf-dist/tex/latex/oberdiek/grfext.sty
INPUT /usr/share/texlive/texmf-dist/tex/latex/latexconfig/epstopdf-sys.cfg
INPUT /usr/share/texlive/texmf-dist/tex/latex/latexconfig/epstopdf-sys.cfg
INPUT /usr/share/texlive/texmf-dist/tex/latex/oberdiek/pdflscape.sty
INPUT /usr/share/texlive/texmf-dist/tex/latex/oberdiek/pdflscape.sty
INPUT /usr/share/texlive/texmf-dist/tex/latex/graphics/lscape.sty
INPUT /usr/share/texlive/texmf-dist/tex/latex/graphics/lscape.sty
INPUT /usr/share/texlive/texmf-dist/tex/latex/hyperref/nameref.sty
INPUT /usr/share/texlive/texmf-dist/tex/latex/hyperref/nameref.sty
INPUT /usr/share/texlive/texmf-dist/tex/generic/oberdiek/gettitlestring.sty
INPUT /usr/share/texlive/texmf-dist/tex/generic/oberdiek/gettitlestring.sty
INPUT /home/rad/SynologyDrive/Birkbeck/statistical_learning/assignment/report/main.out
INPUT /home/rad/SynologyDrive/Birkbeck/statistical_learning/assignment/report/main.out
INPUT /home/rad/SynologyDrive/Birkbeck/statistical_learning/assignment/report/main.out
INPUT /home/rad/SynologyDrive/Birkbeck/statistical_learning/assignment/report/main.out
OUTPUT /home/rad/SynologyDrive/Birkbeck/statistical_learning/assignment/report/main.pdf
INPUT /home/rad/SynologyDrive/Birkbeck/statistical_learning/assignment/report/main.out
INPUT /home/rad/SynologyDrive/Birkbeck/statistical_learning/assignment/report/main.out
OUTPUT /home/rad/SynologyDrive/Birkbeck/statistical_learning/assignment/report/main.out
INPUT /usr/share/texlive/texmf-dist/fonts/tfm/adobe/palatino/pplrc8t.tfm
INPUT /usr/share/texlive/texmf-dist/fonts/tfm/adobe/palatino/pplr8t.tfm
INPUT /usr/share/texlive/texmf-dist/fonts/tfm/adobe/palatino/pplb8t.tfm
INPUT /usr/share/texlive/texmf-dist/fonts/tfm/adobe/palatino/pplri8t.tfm
INPUT /usr/share/texlive/texmf-dist/fonts/tfm/adobe/palatino/pplb8t.tfm
INPUT /usr/share/texlive/texmf-dist/tex/latex/psnfss/omsppl.fd
INPUT /usr/share/texlive/texmf-dist/tex/latex/psnfss/omsppl.fd
INPUT /usr/share/texlive/texmf-dist/fonts/tfm/public/cm/cmsy10.tfm
INPUT /usr/share/texlive/texmf-dist/tex/latex/psnfss/ot1ppl.fd
INPUT /usr/share/texlive/texmf-dist/tex/latex/psnfss/ot1ppl.fd
INPUT /usr/share/texlive/texmf-dist/fonts/tfm/adobe/palatino/pplr7t.tfm
INPUT /usr/share/texlive/texmf-dist/fonts/tfm/adobe/palatino/pplr7t.tfm
INPUT /usr/share/texlive/texmf-dist/fonts/tfm/adobe/palatino/pplr7t.tfm
INPUT /usr/share/texlive/texmf-dist/tex/latex/psnfss/omlzplm.fd
INPUT /usr/share/texlive/texmf-dist/tex/latex/psnfss/omlzplm.fd
INPUT /usr/share/texlive/texmf-dist/fonts/tfm/public/mathpazo/zplmr7m.tfm
INPUT /usr/share/texlive/texmf-dist/fonts/tfm/public/mathpazo/zplmr7m.tfm
INPUT /usr/share/texlive/texmf-dist/fonts/tfm/public/mathpazo/zplmr7m.tfm
INPUT /usr/share/texlive/texmf-dist/tex/latex/psnfss/omszplm.fd
INPUT /usr/share/texlive/texmf-dist/tex/latex/psnfss/omszplm.fd
INPUT /usr/share/texlive/texmf-dist/fonts/tfm/public/mathpazo/zplmr7y.tfm
INPUT /usr/share/texlive/texmf-dist/fonts/tfm/public/mathpazo/zplmr7y.tfm
INPUT /usr/share/texlive/texmf-dist/fonts/tfm/public/mathpazo/zplmr7y.tfm
INPUT /usr/share/texlive/texmf-dist/tex/latex/psnfss/omxzplm.fd
INPUT /usr/share/texlive/texmf-dist/tex/latex/psnfss/omxzplm.fd
INPUT /usr/share/texlive/texmf-dist/fonts/tfm/public/mathpazo/zplmr7v.tfm
INPUT /usr/share/texlive/texmf-dist/fonts/tfm/public/mathpazo/zplmr7v.tfm
INPUT /usr/share/texlive/texmf-dist/fonts/tfm/public/mathpazo/zplmr7v.tfm
INPUT /usr/share/texlive/texmf-dist/tex/latex/psnfss/ot1zplm.fd
INPUT /usr/share/texlive/texmf-dist/tex/latex/psnfss/ot1zplm.fd
INPUT /usr/share/texlive/texmf-dist/fonts/tfm/public/mathpazo/zplmr7t.tfm
INPUT /usr/share/texlive/texmf-dist/fonts/tfm/public/mathpazo/zplmr7t.tfm
INPUT /usr/share/texlive/texmf-dist/fonts/tfm/public/mathpazo/zplmr7t.tfm
INPUT /usr/share/texlive/texmf-dist/fonts/tfm/adobe/palatino/pplb7t.tfm
INPUT /usr/share/texlive/texmf-dist/fonts/tfm/adobe/palatino/pplb7t.tfm
INPUT /usr/share/texlive/texmf-dist/fonts/tfm/adobe/palatino/pplb7t.tfm
INPUT /usr/share/texlive/texmf-dist/fonts/tfm/public/mathpazo/zplmb7m.tfm
INPUT /usr/share/texlive/texmf-dist/fonts/tfm/public/mathpazo/zplmb7m.tfm
INPUT /usr/share/texlive/texmf-dist/fonts/tfm/public/mathpazo/zplmb7m.tfm
INPUT /usr/share/texlive/texmf-dist/fonts/tfm/public/mathpazo/zplmb7y.tfm
INPUT /usr/share/texlive/texmf-dist/fonts/tfm/public/mathpazo/zplmb7y.tfm
INPUT /usr/share/texlive/texmf-dist/fonts/tfm/public/mathpazo/zplmb7y.tfm
INPUT /usr/share/texlive/texmf-dist/fonts/tfm/public/mathpazo/zplmb7t.tfm
INPUT /usr/share/texlive/texmf-dist/fonts/tfm/public/mathpazo/zplmb7t.tfm
INPUT /usr/share/texlive/texmf-dist/fonts/tfm/public/mathpazo/zplmb7t.tfm
INPUT /usr/share/texlive/texmf-dist/fonts/tfm/adobe/palatino/pplbi8t.tfm
INPUT /usr/share/texlive/texmf-dist/fonts/vf/adobe/palatino/pplrc8t.vf
INPUT /usr/share/texlive/texmf-dist/fonts/tfm/adobe/palatino/pplr8r.tfm
INPUT /usr/share/texlive/texmf-dist/fonts/tfm/adobe/palatino/pplr8r.tfm
INPUT /var/lib/texmf/fonts/map/pdftex/updmap/pdftex.map
INPUT /usr/share/texlive/texmf-dist/fonts/vf/adobe/palatino/pplb8t.vf
INPUT /usr/share/texlive/texmf-dist/fonts/tfm/adobe/palatino/pplb8r.tfm
INPUT /usr/share/texlive/texmf-dist/fonts/vf/adobe/palatino/pplr8t.vf
INPUT /usr/share/texlive/texmf-dist/fonts/vf/adobe/palatino/pplri8t.vf
INPUT /usr/share/texlive/texmf-dist/fonts/tfm/adobe/palatino/pplri8r.tfm
INPUT /usr/share/texlive/texmf-dist/fonts/vf/adobe/palatino/pplb8t.vf
INPUT /usr/share/texlive/texmf-dist/fonts/tfm/adobe/palatino/pplb8r.tfm
INPUT /usr/share/texlive/texmf-dist/fonts/vf/adobe/palatino/pplbi8t.vf
INPUT /usr/share/texlive/texmf-dist/fonts/tfm/adobe/palatino/pplbi8r.tfm
INPUT /usr/share/texlive/texmf-dist/fonts/tfm/adobe/palatino/pplr8t.tfm
INPUT /usr/share/texlive/texmf-dist/fonts/tfm/adobe/palatino/pplr7t.tfm
INPUT /usr/share/texlive/texmf-dist/fonts/tfm/adobe/palatino/pplr7t.tfm
INPUT /usr/share/texlive/texmf-dist/fonts/tfm/adobe/palatino/pplr7t.tfm
INPUT /usr/share/texlive/texmf-dist/fonts/tfm/public/mathpazo/zplmr7m.tfm
INPUT /usr/share/texlive/texmf-dist/fonts/tfm/public/mathpazo/zplmr7m.tfm
INPUT /usr/share/texlive/texmf-dist/fonts/tfm/public/mathpazo/zplmr7m.tfm
INPUT /usr/share/texlive/texmf-dist/fonts/tfm/public/mathpazo/zplmr7y.tfm
INPUT /usr/share/texlive/texmf-dist/fonts/tfm/public/mathpazo/zplmr7y.tfm
INPUT /usr/share/texlive/texmf-dist/fonts/tfm/public/mathpazo/zplmr7y.tfm
INPUT /usr/share/texlive/texmf-dist/fonts/tfm/public/mathpazo/zplmr7v.tfm
INPUT /usr/share/texlive/texmf-dist/fonts/tfm/public/mathpazo/zplmr7v.tfm
INPUT /usr/share/texlive/texmf-dist/fonts/tfm/public/mathpazo/zplmr7v.tfm
INPUT /usr/share/texlive/texmf-dist/fonts/tfm/public/mathpazo/zplmr7t.tfm
INPUT /usr/share/texlive/texmf-dist/fonts/tfm/public/mathpazo/zplmr7t.tfm
INPUT /usr/share/texlive/texmf-dist/fonts/tfm/public/mathpazo/zplmr7t.tfm
INPUT /usr/share/texlive/texmf-dist/fonts/tfm/adobe/palatino/pplb7t.tfm
INPUT /usr/share/texlive/texmf-dist/fonts/tfm/adobe/palatino/pplb7t.tfm
INPUT /usr/share/texlive/texmf-dist/fonts/tfm/adobe/palatino/pplb7t.tfm
INPUT /usr/share/texlive/texmf-dist/fonts/tfm/public/mathpazo/zplmb7m.tfm
INPUT /usr/share/texlive/texmf-dist/fonts/tfm/public/mathpazo/zplmb7m.tfm
INPUT /usr/share/texlive/texmf-dist/fonts/tfm/public/mathpazo/zplmb7m.tfm
INPUT /usr/share/texlive/texmf-dist/fonts/tfm/public/mathpazo/zplmb7y.tfm
INPUT /usr/share/texlive/texmf-dist/fonts/tfm/public/mathpazo/zplmb7y.tfm
INPUT /usr/share/texlive/texmf-dist/fonts/tfm/public/mathpazo/zplmb7y.tfm
INPUT /usr/share/texlive/texmf-dist/fonts/tfm/public/mathpazo/zplmb7t.tfm
INPUT /usr/share/texlive/texmf-dist/fonts/tfm/public/mathpazo/zplmb7t.tfm
INPUT /usr/share/texlive/texmf-dist/fonts/tfm/public/mathpazo/zplmb7t.tfm
INPUT /usr/share/texlive/texmf-dist/fonts/tfm/adobe/palatino/pplr8t.tfm
INPUT /usr/share/texlive/texmf-dist/fonts/tfm/adobe/palatino/pplr8t.tfm
INPUT /usr/share/texlive/texmf-dist/fonts/tfm/adobe/palatino/pplr8t.tfm
INPUT /usr/share/texlive/texmf-dist/fonts/tfm/adobe/palatino/pplri8t.tfm
INPUT /usr/share/texlive/texmf-dist/fonts/vf/adobe/palatino/pplri8t.vf
INPUT /usr/share/texlive/texmf-dist/fonts/tfm/adobe/palatino/pplri8r.tfm
INPUT /usr/share/texlive/texmf-dist/fonts/vf/adobe/palatino/pplr8t.vf
INPUT /usr/share/texlive/texmf-dist/fonts/tfm/adobe/palatino/pplr8r.tfm
INPUT /usr/share/texlive/texmf-dist/fonts/vf/adobe/palatino/pplr8t.vf
INPUT /usr/share/texlive/texmf-dist/fonts/tfm/adobe/palatino/pplr8r.tfm
INPUT /usr/share/texlive/texmf-dist/fonts/vf/public/mathpazo/zplmr7m.vf
INPUT /usr/share/texlive/texmf-dist/fonts/tfm/public/mathpazo/fplmri.tfm
INPUT /usr/share/texlive/texmf-dist/fonts/tfm/public/cm/cmmi10.tfm
INPUT /usr/share/texlive/texmf-dist/fonts/vf/public/mathpazo/zplmr7m.vf
INPUT /usr/share/texlive/texmf-dist/fonts/tfm/public/mathpazo/fplmri.tfm
INPUT /usr/share/texlive/texmf-dist/fonts/tfm/public/cm/cmmi10.tfm
INPUT /usr/share/texlive/texmf-dist/fonts/tfm/adobe/palatino/pplr8r.tfm
INPUT /usr/share/texlive/texmf-dist/fonts/tfm/adobe/palatino/pplri8r.tfm
INPUT /usr/share/texlive/texmf-dist/fonts/vf/public/mathpazo/zplmr7t.vf
INPUT /usr/share/texlive/texmf-dist/fonts/tfm/public/mathpazo/fplmr.tfm
INPUT /usr/share/texlive/texmf-dist/fonts/tfm/public/cm/cmr10.tfm
INPUT /usr/share/texlive/texmf-dist/fonts/vf/public/mathpazo/zplmb7m.vf
INPUT /usr/share/texlive/texmf-dist/fonts/tfm/public/mathpazo/fplmbi.tfm
INPUT /usr/share/texlive/texmf-dist/fonts/tfm/public/cm/cmmib10.tfm
INPUT /usr/share/texlive/texmf-dist/fonts/vf/adobe/palatino/pplr7t.vf
INPUT /usr/share/texlive/texmf-dist/fonts/vf/adobe/palatino/pplr7t.vf
INPUT /usr/share/texlive/texmf-dist/fonts/vf/public/mathpazo/zplmr7y.vf
INPUT /usr/share/texlive/texmf-dist/fonts/tfm/public/cm/cmsy10.tfm
INPUT /usr/share/texlive/texmf-dist/fonts/tfm/adobe/palatino/pplr7t.tfm
INPUT /usr/share/texlive/texmf-dist/fonts/tfm/adobe/palatino/pplr7t.tfm
INPUT /usr/share/texlive/texmf-dist/fonts/tfm/public/mathpazo/zplmr7m.tfm
INPUT /usr/share/texlive/texmf-dist/fonts/tfm/public/mathpazo/zplmr7m.tfm
INPUT /usr/share/texlive/texmf-dist/fonts/tfm/public/mathpazo/zplmr7y.tfm
INPUT /usr/share/texlive/texmf-dist/fonts/tfm/public/mathpazo/zplmr7y.tfm
INPUT /usr/share/texlive/texmf-dist/fonts/tfm/public/mathpazo/zplmr7v.tfm
INPUT /usr/share/texlive/texmf-dist/fonts/tfm/public/mathpazo/zplmr7v.tfm
INPUT /usr/share/texlive/texmf-dist/fonts/tfm/public/mathpazo/zplmr7t.tfm
INPUT /usr/share/texlive/texmf-dist/fonts/tfm/public/mathpazo/zplmr7t.tfm
INPUT /usr/share/texlive/texmf-dist/fonts/tfm/adobe/palatino/pplb7t.tfm
INPUT /usr/share/texlive/texmf-dist/fonts/tfm/adobe/palatino/pplb7t.tfm
INPUT /usr/share/texlive/texmf-dist/fonts/tfm/public/mathpazo/zplmb7m.tfm
INPUT /usr/share/texlive/texmf-dist/fonts/tfm/public/mathpazo/zplmb7m.tfm
INPUT /usr/share/texlive/texmf-dist/fonts/tfm/public/mathpazo/zplmb7y.tfm
INPUT /usr/share/texlive/texmf-dist/fonts/tfm/public/mathpazo/zplmb7y.tfm
INPUT /usr/share/texlive/texmf-dist/fonts/tfm/public/mathpazo/zplmb7t.tfm
INPUT /usr/share/texlive/texmf-dist/fonts/tfm/public/mathpazo/zplmb7t.tfm
INPUT /usr/share/texlive/texmf-dist/fonts/tfm/adobe/palatino/pplr8t.tfm
INPUT /usr/share/texlive/texmf-dist/fonts/tfm/adobe/palatino/pplr8t.tfm
INPUT /usr/share/texlive/texmf-dist/fonts/tfm/adobe/palatino/pplr7t.tfm
INPUT /usr/share/texlive/texmf-dist/fonts/tfm/public/mathpazo/zplmr7m.tfm
INPUT /usr/share/texlive/texmf-dist/fonts/tfm/public/mathpazo/zplmr7y.tfm
INPUT /usr/share/texlive/texmf-dist/fonts/tfm/public/mathpazo/zplmr7v.tfm
INPUT /usr/share/texlive/texmf-dist/fonts/tfm/public/mathpazo/zplmr7t.tfm
INPUT /usr/share/texlive/texmf-dist/fonts/tfm/adobe/palatino/pplb7t.tfm
INPUT /usr/share/texlive/texmf-dist/fonts/tfm/public/mathpazo/zplmb7m.tfm
INPUT /usr/share/texlive/texmf-dist/fonts/tfm/public/mathpazo/zplmb7y.tfm
INPUT /usr/share/texlive/texmf-dist/fonts/tfm/public/mathpazo/zplmb7t.tfm
INPUT /usr/share/texlive/texmf-dist/fonts/vf/adobe/palatino/pplr8t.vf
INPUT /usr/share/texlive/texmf-dist/fonts/vf/adobe/palatino/pplr8t.vf
INPUT /usr/share/texlive/texmf-dist/fonts/tfm/adobe/palatino/pplr8r.tfm
INPUT /usr/share/texlive/texmf-dist/fonts/vf/adobe/palatino/pplr8t.vf
INPUT /usr/share/texlive/texmf-dist/fonts/tfm/adobe/palatino/pplr8r.tfm
INPUT /home/rad/SynologyDrive/Birkbeck/statistical_learning/assignment/report/Rplot01.png
INPUT /home/rad/SynologyDrive/Birkbeck/statistical_learning/assignment/report/Rplot01.png
INPUT /home/rad/SynologyDrive/Birkbeck/statistical_learning/assignment/report/Rplot01.png
INPUT /home/rad/SynologyDrive/Birkbeck/statistical_learning/assignment/report/Rplot02.png
INPUT /home/rad/SynologyDrive/Birkbeck/statistical_learning/assignment/report/Rplot02.png
INPUT /home/rad/SynologyDrive/Birkbeck/statistical_learning/assignment/report/Rplot02.png
INPUT /home/rad/SynologyDrive/Birkbeck/statistical_learning/assignment/report/Rplot03.png
INPUT /home/rad/SynologyDrive/Birkbeck/statistical_learning/assignment/report/Rplot03.png
INPUT /home/rad/SynologyDrive/Birkbeck/statistical_learning/assignment/report/Rplot03.png
INPUT /home/rad/SynologyDrive/Birkbeck/statistical_learning/assignment/report/Rplot04.png
INPUT /home/rad/SynologyDrive/Birkbeck/statistical_learning/assignment/report/Rplot04.png
INPUT /home/rad/SynologyDrive/Birkbeck/statistical_learning/assignment/report/Rplot04.png
INPUT /home/rad/SynologyDrive/Birkbeck/statistical_learning/assignment/report/Rplot05.png
INPUT /home/rad/SynologyDrive/Birkbeck/statistical_learning/assignment/report/Rplot05.png
INPUT /home/rad/SynologyDrive/Birkbeck/statistical_learning/assignment/report/Rplot05.png
INPUT /home/rad/SynologyDrive/Birkbeck/statistical_learning/assignment/report/Rplot06.png
INPUT /home/rad/SynologyDrive/Birkbeck/statistical_learning/assignment/report/Rplot06.png
INPUT /home/rad/SynologyDrive/Birkbeck/statistical_learning/assignment/report/Rplot06.png
INPUT /usr/share/texlive/texmf-dist/tex/latex/listings/lstlang1.sty
INPUT /usr/share/texlive/texmf-dist/tex/latex/listings/lstlang1.sty
INPUT /usr/share/texlive/texmf-dist/tex/latex/listings/lstlang2.sty
INPUT /usr/share/texlive/texmf-dist/tex/latex/listings/lstlang2.sty
INPUT /usr/share/texlive/texmf-dist/tex/latex/listings/lstlang3.sty
INPUT /usr/share/texlive/texmf-dist/tex/latex/listings/lstlang3.sty
INPUT /home/rad/SynologyDrive/Birkbeck/statistical_learning/assignment/report/../data_analysis/cumulative_logit.R
INPUT /home/rad/SynologyDrive/Birkbeck/statistical_learning/assignment/report/../data_analysis/cumulative_logit.R
INPUT /home/rad/SynologyDrive/Birkbeck/statistical_learning/assignment/report/../data_analysis/cumulative_logit.R
INPUT /usr/share/texlive/texmf-dist/fonts/tfm/adobe/palatino/pplr8t.tfm
INPUT /usr/share/texlive/texmf-dist/fonts/tfm/adobe/palatino/pplb8t.tfm
INPUT /usr/share/texlive/texmf-dist/fonts/vf/adobe/palatino/pplr8t.vf
INPUT /usr/share/texlive/texmf-dist/fonts/tfm/adobe/palatino/pplr8r.tfm
INPUT /usr/share/texlive/texmf-dist/fonts/vf/adobe/palatino/pplb8t.vf
INPUT /usr/share/texlive/texmf-dist/fonts/tfm/adobe/palatino/pplb8r.tfm
INPUT /usr/share/texlive/texmf-dist/fonts/vf/public/mathpazo/zplmr7y.vf
INPUT /usr/share/texlive/texmf-dist/fonts/tfm/public/cm/cmsy10.tfm
INPUT /usr/share/texlive/texmf-dist/fonts/tfm/public/mathpazo/fplmr.tfm
INPUT /home/rad/SynologyDrive/Birkbeck/statistical_learning/assignment/report/../data_analysis/decision_tree.R
INPUT /home/rad/SynologyDrive/Birkbeck/statistical_learning/assignment/report/../data_analysis/decision_tree.R
INPUT /home/rad/SynologyDrive/Birkbeck/statistical_learning/assignment/report/../data_analysis/decision_tree.R
INPUT /home/rad/SynologyDrive/Birkbeck/statistical_learning/assignment/report/../data_analysis/data_analysis.R
INPUT /home/rad/SynologyDrive/Birkbeck/statistical_learning/assignment/report/../data_analysis/data_analysis.R
INPUT /home/rad/SynologyDrive/Birkbeck/statistical_learning/assignment/report/../data_analysis/data_analysis.R
INPUT /home/rad/SynologyDrive/Birkbeck/statistical_learning/assignment/report/mypaper.pdf
INPUT /home/rad/SynologyDrive/Birkbeck/statistical_learning/assignment/report/mypaper.pdf
INPUT /home/rad/SynologyDrive/Birkbeck/statistical_learning/assignment/report/mypaper.pdf
INPUT /home/rad/SynologyDrive/Birkbeck/statistical_learning/assignment/report/mypaper.pdf
INPUT /home/rad/SynologyDrive/Birkbeck/statistical_learning/assignment/report/mypaper.pdf
INPUT /home/rad/SynologyDrive/Birkbeck/statistical_learning/assignment/report/mypaper.pdf
INPUT /home/rad/SynologyDrive/Birkbeck/statistical_learning/assignment/report/mypaper.pdf
INPUT /home/rad/SynologyDrive/Birkbeck/statistical_learning/assignment/report/mypaper.pdf
INPUT /home/rad/SynologyDrive/Birkbeck/statistical_learning/assignment/report/mypaper.pdf
INPUT /home/rad/SynologyDrive/Birkbeck/statistical_learning/assignment/report/mypaper.pdf
INPUT /home/rad/SynologyDrive/Birkbeck/statistical_learning/assignment/report/mypaper.pdf
INPUT /home/rad/SynologyDrive/Birkbeck/statistical_learning/assignment/report/mypaper.pdf
INPUT /home/rad/SynologyDrive/Birkbeck/statistical_learning/assignment/report/mypaper.pdf
INPUT /home/rad/SynologyDrive/Birkbeck/statistical_learning/assignment/report/mypaper.pdf
INPUT /home/rad/SynologyDrive/Birkbeck/statistical_learning/assignment/report/mypaper.pdf
INPUT /home/rad/SynologyDrive/Birkbeck/statistical_learning/assignment/report/mypaper.pdf
INPUT /home/rad/SynologyDrive/Birkbeck/statistical_learning/assignment/report/mypaper.pdf
INPUT /home/rad/SynologyDrive/Birkbeck/statistical_learning/assignment/report/mypaper.pdf
INPUT /home/rad/SynologyDrive/Birkbeck/statistical_learning/assignment/report/mypaper.pdf
INPUT /home/rad/SynologyDrive/Birkbeck/statistical_learning/assignment/report/mypaper.pdf
INPUT /home/rad/SynologyDrive/Birkbeck/statistical_learning/assignment/report/mypaper.pdf
INPUT /home/rad/SynologyDrive/Birkbeck/statistical_learning/assignment/report/mypaper.pdf
INPUT /home/rad/SynologyDrive/Birkbeck/statistical_learning/assignment/report/mypaper.pdf
INPUT /home/rad/SynologyDrive/Birkbeck/statistical_learning/assignment/report/mypaper.pdf
INPUT /home/rad/SynologyDrive/Birkbeck/statistical_learning/assignment/report/mypaper.pdf
INPUT /home/rad/SynologyDrive/Birkbeck/statistical_learning/assignment/report/mypaper.pdf
INPUT /home/rad/SynologyDrive/Birkbeck/statistical_learning/assignment/report/mypaper.pdf
INPUT /home/rad/SynologyDrive/Birkbeck/statistical_learning/assignment/report/mypaper.pdf
INPUT /home/rad/SynologyDrive/Birkbeck/statistical_learning/assignment/report/mypaper.pdf
INPUT /home/rad/SynologyDrive/Birkbeck/statistical_learning/assignment/report/mypaper.pdf
INPUT /home/rad/SynologyDrive/Birkbeck/statistical_learning/assignment/report/mypaper.pdf
INPUT /home/rad/SynologyDrive/Birkbeck/statistical_learning/assignment/report/mypaper.pdf
INPUT /home/rad/SynologyDrive/Birkbeck/statistical_learning/assignment/report/mypaper.pdf
INPUT /home/rad/SynologyDrive/Birkbeck/statistical_learning/assignment/report/mypaper.pdf
INPUT /home/rad/SynologyDrive/Birkbeck/statistical_learning/assignment/report/mypaper.pdf
INPUT /home/rad/SynologyDrive/Birkbeck/statistical_learning/assignment/report/mypaper.pdf
INPUT /home/rad/SynologyDrive/Birkbeck/statistical_learning/assignment/report/mypaper.pdf
INPUT /home/rad/SynologyDrive/Birkbeck/statistical_learning/assignment/report/mypaper.pdf
INPUT /home/rad/SynologyDrive/Birkbeck/statistical_learning/assignment/report/mypaper.pdf
INPUT /home/rad/SynologyDrive/Birkbeck/statistical_learning/assignment/report/mypaper.pdf
INPUT /home/rad/SynologyDrive/Birkbeck/statistical_learning/assignment/report/mypaper.pdf
INPUT /home/rad/SynologyDrive/Birkbeck/statistical_learning/assignment/report/mypaper.pdf
INPUT /home/rad/SynologyDrive/Birkbeck/statistical_learning/assignment/report/mypaper.pdf
INPUT /home/rad/SynologyDrive/Birkbeck/statistical_learning/assignment/report/mypaper.pdf
INPUT /home/rad/SynologyDrive/Birkbeck/statistical_learning/assignment/report/mypaper.pdf
INPUT /home/rad/SynologyDrive/Birkbeck/statistical_learning/assignment/report/mypaper.pdf
INPUT /home/rad/SynologyDrive/Birkbeck/statistical_learning/assignment/report/mypaper.pdf
INPUT /home/rad/SynologyDrive/Birkbeck/statistical_learning/assignment/report/mypaper.pdf
INPUT /home/rad/SynologyDrive/Birkbeck/statistical_learning/assignment/report/mypaper.pdf
INPUT /home/rad/SynologyDrive/Birkbeck/statistical_learning/assignment/report/mypaper.pdf
INPUT /home/rad/SynologyDrive/Birkbeck/statistical_learning/assignment/report/mypaper.pdf
INPUT /home/rad/SynologyDrive/Birkbeck/statistical_learning/assignment/report/mypaper.pdf
INPUT /home/rad/SynologyDrive/Birkbeck/statistical_learning/assignment/report/mypaper.pdf
INPUT /home/rad/SynologyDrive/Birkbeck/statistical_learning/assignment/report/mypaper.pdf
INPUT /home/rad/SynologyDrive/Birkbeck/statistical_learning/assignment/report/mypaper.pdf
INPUT /home/rad/SynologyDrive/Birkbeck/statistical_learning/assignment/report/mypaper.pdf
INPUT /home/rad/SynologyDrive/Birkbeck/statistical_learning/assignment/report/mypaper.pdf
INPUT /home/rad/SynologyDrive/Birkbeck/statistical_learning/assignment/report/mypaper.pdf
INPUT /home/rad/SynologyDrive/Birkbeck/statistical_learning/assignment/report/mypaper.pdf
INPUT /home/rad/SynologyDrive/Birkbeck/statistical_learning/assignment/report/mypaper.pdf
INPUT /home/rad/SynologyDrive/Birkbeck/statistical_learning/assignment/report/mypaper.pdf
INPUT /home/rad/SynologyDrive/Birkbeck/statistical_learning/assignment/report/mypaper.pdf
INPUT /home/rad/SynologyDrive/Birkbeck/statistical_learning/assignment/report/mypaper.pdf
INPUT /home/rad/SynologyDrive/Birkbeck/statistical_learning/assignment/report/mypaper.pdf
INPUT /home/rad/SynologyDrive/Birkbeck/statistical_learning/assignment/report/mypaper.pdf
INPUT /home/rad/SynologyDrive/Birkbeck/statistical_learning/assignment/report/mypaper.pdf
INPUT /home/rad/SynologyDrive/Birkbeck/statistical_learning/assignment/report/mypaper.pdf
INPUT /home/rad/SynologyDrive/Birkbeck/statistical_learning/assignment/report/mypaper.pdf
INPUT /home/rad/SynologyDrive/Birkbeck/statistical_learning/assignment/report/mypaper.pdf
INPUT /home/rad/SynologyDrive/Birkbeck/statistical_learning/assignment/report/mypaper.pdf
INPUT /home/rad/SynologyDrive/Birkbeck/statistical_learning/assignment/report/mypaper.pdf
INPUT /home/rad/SynologyDrive/Birkbeck/statistical_learning/assignment/report/mypaper.pdf
INPUT /home/rad/SynologyDrive/Birkbeck/statistical_learning/assignment/report/mypaper.pdf
INPUT /home/rad/SynologyDrive/Birkbeck/statistical_learning/assignment/report/mypaper.pdf
INPUT /home/rad/SynologyDrive/Birkbeck/statistical_learning/assignment/report/mypaper.pdf
INPUT /home/rad/SynologyDrive/Birkbeck/statistical_learning/assignment/report/mypaper.pdf
INPUT /home/rad/SynologyDrive/Birkbeck/statistical_learning/assignment/report/mypaper.pdf
INPUT /home/rad/SynologyDrive/Birkbeck/statistical_learning/assignment/report/mypaper.pdf
INPUT /home/rad/SynologyDrive/Birkbeck/statistical_learning/assignment/report/mypaper.pdf
INPUT /home/rad/SynologyDrive/Birkbeck/statistical_learning/assignment/report/mypaper.pdf
INPUT /home/rad/SynologyDrive/Birkbeck/statistical_learning/assignment/report/mypaper.pdf
INPUT /home/rad/SynologyDrive/Birkbeck/statistical_learning/assignment/report/mypaper.pdf
INPUT /home/rad/SynologyDrive/Birkbeck/statistical_learning/assignment/report/mypaper.pdf
INPUT /home/rad/SynologyDrive/Birkbeck/statistical_learning/assignment/report/mypaper.pdf
INPUT /home/rad/SynologyDrive/Birkbeck/statistical_learning/assignment/report/mypaper.pdf
INPUT /home/rad/SynologyDrive/Birkbeck/statistical_learning/assignment/report/mypaper.pdf
INPUT /home/rad/SynologyDrive/Birkbeck/statistical_learning/assignment/report/mypaper.pdf
INPUT /home/rad/SynologyDrive/Birkbeck/statistical_learning/assignment/report/mypaper.pdf
INPUT /home/rad/SynologyDrive/Birkbeck/statistical_learning/assignment/report/mypaper.pdf
INPUT /home/rad/SynologyDrive/Birkbeck/statistical_learning/assignment/report/mypaper.pdf
INPUT /home/rad/SynologyDrive/Birkbeck/statistical_learning/assignment/report/mypaper.pdf
INPUT /home/rad/SynologyDrive/Birkbeck/statistical_learning/assignment/report/mypaper.pdf
INPUT /home/rad/SynologyDrive/Birkbeck/statistical_learning/assignment/report/mypaper.pdf
INPUT /home/rad/SynologyDrive/Birkbeck/statistical_learning/assignment/report/mypaper.pdf
INPUT /home/rad/SynologyDrive/Birkbeck/statistical_learning/assignment/report/mypaper.pdf
INPUT /home/rad/SynologyDrive/Birkbeck/statistical_learning/assignment/report/mypaper.pdf
INPUT /home/rad/SynologyDrive/Birkbeck/statistical_learning/assignment/report/mypaper.pdf
INPUT /home/rad/SynologyDrive/Birkbeck/statistical_learning/assignment/report/mypaper.pdf
INPUT /home/rad/SynologyDrive/Birkbeck/statistical_learning/assignment/report/mypaper.pdf
INPUT /home/rad/SynologyDrive/Birkbeck/statistical_learning/assignment/report/mypaper.pdf
INPUT /home/rad/SynologyDrive/Birkbeck/statistical_learning/assignment/report/mypaper.pdf
INPUT /home/rad/SynologyDrive/Birkbeck/statistical_learning/assignment/report/mypaper.pdf
INPUT /home/rad/SynologyDrive/Birkbeck/statistical_learning/assignment/report/mypaper.pdf
INPUT /home/rad/SynologyDrive/Birkbeck/statistical_learning/assignment/report/mypaper.pdf
INPUT /home/rad/SynologyDrive/Birkbeck/statistical_learning/assignment/report/mypaper.pdf
INPUT /home/rad/SynologyDrive/Birkbeck/statistical_learning/assignment/report/mypaper.pdf
INPUT /home/rad/SynologyDrive/Birkbeck/statistical_learning/assignment/report/mypaper.pdf
INPUT /home/rad/SynologyDrive/Birkbeck/statistical_learning/assignment/report/mypaper.pdf
INPUT /home/rad/SynologyDrive/Birkbeck/statistical_learning/assignment/report/mypaper.pdf
INPUT /home/rad/SynologyDrive/Birkbeck/statistical_learning/assignment/report/mypaper.pdf
INPUT /home/rad/SynologyDrive/Birkbeck/statistical_learning/assignment/report/mypaper.pdf
INPUT /home/rad/SynologyDrive/Birkbeck/statistical_learning/assignment/report/mypaper.pdf
INPUT /home/rad/SynologyDrive/Birkbeck/statistical_learning/assignment/report/mypaper.pdf
INPUT /home/rad/SynologyDrive/Birkbeck/statistical_learning/assignment/report/mypaper.pdf
INPUT /home/rad/SynologyDrive/Birkbeck/statistical_learning/assignment/report/mypaper.pdf
INPUT /home/rad/SynologyDrive/Birkbeck/statistical_learning/assignment/report/mypaper.pdf
INPUT /home/rad/SynologyDrive/Birkbeck/statistical_learning/assignment/report/mypaper.pdf
INPUT /home/rad/SynologyDrive/Birkbeck/statistical_learning/assignment/report/main.aux
INPUT /home/rad/SynologyDrive/Birkbeck/statistical_learning/assignment/report/main.out
INPUT /home/rad/SynologyDrive/Birkbeck/statistical_learning/assignment/report/main.out
INPUT /usr/share/texlive/texmf-dist/fonts/enc/dvips/base/8r.enc
INPUT /usr/share/texlive/texmf-dist/fonts/type1/public/amsfonts/cm/cmmi10.pfb
INPUT /usr/share/texlive/texmf-dist/fonts/type1/public/amsfonts/cm/cmr10.pfb
INPUT /usr/share/texlive/texmf-dist/fonts/type1/public/amsfonts/cm/cmsy10.pfb
INPUT /usr/share/texlive/texmf-dist/fonts/type1/public/mathpazo/fplmbi.pfb
INPUT /usr/share/texlive/texmf-dist/fonts/type1/public/mathpazo/fplmri.pfb
INPUT /usr/share/texlive/texmf-dist/fonts/type1/urw/palatino/uplb8a.pfb
INPUT /usr/share/texlive/texmf-dist/fonts/type1/urw/palatino/uplbi8a.pfb
INPUT /usr/share/texlive/texmf-dist/fonts/type1/urw/palatino/uplr8a.pfb
INPUT /usr/share/texlive/texmf-dist/fonts/type1/urw/palatino/uplri8a.pfb
