\relax 
\providecommand\hyper@newdestlabel[2]{}
\providecommand\HyperFirstAtBeginDocument{\AtBeginDocument}
\HyperFirstAtBeginDocument{\ifx\hyper@anchor\@undefined
\global\let\oldcontentsline\contentsline
\gdef\contentsline#1#2#3#4{\oldcontentsline{#1}{#2}{#3}}
\global\let\oldnewlabel\newlabel
\gdef\newlabel#1#2{\newlabelxx{#1}#2}
\gdef\newlabelxx#1#2#3#4#5#6{\oldnewlabel{#1}{{#2}{#3}}}
\AtEndDocument{\ifx\hyper@anchor\@undefined
\let\contentsline\oldcontentsline
\let\newlabel\oldnewlabel
\fi}
\fi}
\global\let\hyper@last\relax 
\gdef\HyperFirstAtBeginDocument#1{#1}
\providecommand\HyField@AuxAddToFields[1]{}
\providecommand\HyField@AuxAddToCoFields[2]{}
\@writefile{toc}{\contentsline {paragraph}{}{1}{paragraph*.1}\protected@file@percent }
\@writefile{lot}{\contentsline {table}{\numberline {1}{\ignorespaces Prognostic Factors}}{2}{table.1}\protected@file@percent }
\newlabel{table:1}{{1}{2}{Prognostic Factors}{table.1}{}}
\newlabel{eq:hidden_layer}{{1}{2}{}{equation.0.1}{}}
\newlabel{eq:output_layer}{{2}{2}{}{equation.0.2}{}}
\newlabel{eq:final}{{3}{2}{}{equation.0.3}{}}
\newlabel{eq:logistic_regression}{{4}{3}{}{equation.0.4}{}}
\@writefile{toc}{\contentsline {paragraph}{Accuracy}{3}{paragraph*.2}\protected@file@percent }
\@writefile{lot}{\contentsline {table}{\numberline {2}{\ignorespaces Model Accuracy}}{4}{table.2}\protected@file@percent }
\newlabel{table:2}{{2}{4}{Model Accuracy}{table.2}{}}
\@writefile{toc}{\contentsline {section}{\numberline {I}Data Description}{5}{section.1}\protected@file@percent }
\@writefile{lot}{\contentsline {table}{\numberline {3}{\ignorespaces Data Overview}}{6}{table.3}\protected@file@percent }
\newlabel{table:3}{{3}{6}{Data Overview}{table.3}{}}
\@writefile{lof}{\contentsline {figure}{\numberline {1}{\ignorespaces Four Covariates}}{7}{figure.1}\protected@file@percent }
\newlabel{figure:01}{{1}{7}{Four Covariates}{figure.1}{}}
\@writefile{lof}{\contentsline {figure}{\numberline {2}{\ignorespaces Covariates: Gender, Semester, Parent school Satisfaction, Stage ID, Relation, Student Absence Days, Section ID and Parent Answering Survey. Target: Class}}{8}{figure.2}\protected@file@percent }
\newlabel{figure:02}{{2}{8}{Covariates: Gender, Semester, Parent school Satisfaction, Stage ID, Relation, Student Absence Days, Section ID and Parent Answering Survey. Target: Class}{figure.2}{}}
\@writefile{lof}{\contentsline {figure}{\numberline {3}{\ignorespaces Covariates: Nationality, Place of Birth, Topic and Grade ID}}{9}{figure.3}\protected@file@percent }
\newlabel{figure:03}{{3}{9}{Covariates: Nationality, Place of Birth, Topic and Grade ID}{figure.3}{}}
\@writefile{lof}{\contentsline {figure}{\numberline {4}{\ignorespaces Correlation: Nationality, Place of Birth, Topic and Grade ID}}{9}{figure.4}\protected@file@percent }
\newlabel{figure:04}{{4}{9}{Correlation: Nationality, Place of Birth, Topic and Grade ID}{figure.4}{}}
\@writefile{toc}{\contentsline {section}{\numberline {II}Cumulative Logit Model for Ordinal Responses}{10}{section.2}\protected@file@percent }
\newlabel{eq:cumulative_logit_prob}{{5}{10}{}{equation.2.5}{}}
\newlabel{eq:cumulative_logit_fit}{{6}{10}{}{equation.2.6}{}}
\@writefile{lot}{\contentsline {table}{\numberline {4}{\ignorespaces Coefficients}}{10}{table.4}\protected@file@percent }
\newlabel{table:4}{{4}{10}{Coefficients}{table.4}{}}
\@writefile{lot}{\contentsline {table}{\numberline {5}{\ignorespaces Intercepts}}{10}{table.5}\protected@file@percent }
\newlabel{table:5}{{5}{10}{Intercepts}{table.5}{}}
\newlabel{eq:cumulative_logit_fit}{{7}{11}{}{equation.2.7}{}}
\@writefile{toc}{\contentsline {section}{\numberline {III}Decision Tree}{11}{section.3}\protected@file@percent }
\@writefile{lof}{\contentsline {figure}{\numberline {5}{\ignorespaces Decision Tree Fit}}{11}{figure.5}\protected@file@percent }
\newlabel{figure:05}{{5}{11}{Decision Tree Fit}{figure.5}{}}
\@writefile{lof}{\contentsline {figure}{\numberline {6}{\ignorespaces Decision Tree - Generalisation Error}}{12}{figure.6}\protected@file@percent }
\newlabel{figure:06}{{6}{12}{Decision Tree - Generalisation Error}{figure.6}{}}
\@writefile{toc}{\contentsline {section}{\numberline {A}Appendix - R Code for Cumulative Logit}{13}{Appendix.1.A}\protected@file@percent }
\newlabel{appx:R_cumulative_logit}{{A}{13}{Appendix - R Code for Cumulative Logit}{Appendix.1.A}{}}
\@writefile{lol}{\contentsline {lstlisting}{\numberline {1}Cumulative Logit Model}{13}{lstlisting.1}\protected@file@percent }
\@writefile{toc}{\contentsline {section}{\numberline {B}Appendix - R Code for Decision Tree}{14}{Appendix.1.B}\protected@file@percent }
\newlabel{appx:R_decision_tree}{{B}{14}{Appendix - R Code for Decision Tree}{Appendix.1.B}{}}
\@writefile{lol}{\contentsline {lstlisting}{\numberline {2}Decision Tree}{14}{lstlisting.2}\protected@file@percent }
\@writefile{toc}{\contentsline {section}{\numberline {C}Appendix - R Code for plotting}{16}{Appendix.1.C}\protected@file@percent }
\newlabel{appx:R_plotting}{{C}{16}{Appendix - R Code for plotting}{Appendix.1.C}{}}
\@writefile{lol}{\contentsline {lstlisting}{\numberline {3}Plotting in R}{16}{lstlisting.3}\protected@file@percent }
\@writefile{toc}{\contentsline {section}{\numberline {D}Appendix - The Paper for Question 1}{21}{Appendix.1.D}\protected@file@percent }
\newlabel{appx:paper}{{D}{21}{Appendix - The Paper for Question 1}{Appendix.1.D}{}}
